id;subtotal;products_quantity;discount;iva;invoice_business_name;nit_document;total;total_paid
1;2541;43933;10789;20171;Dynamic;knowledge base Buckinghamshire;90756;13933
2;24929;60441;41038;53984;white Brand Money Market Account;Salad Web virtual;63340;10549
3;87146;45653;80367;21844;e-business;Ghana back-end National;31800;90682
4;11005;27213;22793;64769;Jewelery cutting-edge;Games;51074;53408
5;41741;48482;22210;69243;encompassing;Directives;32320;21876
6;51879;55810;70301;40383;Tasty Concrete Chips Exclusive;Buckinghamshire capability zero tolerance;3688;26678
7;60956;97661;50267;41103;Home;Investor Public-key;14489;53093
8;48945;44778;98565;55289;Credit Card Account;navigate;23763;24215
9;72821;80313;36778;47030;Orchestrator deliver;Licensed hacking installation;18651;69581
10;4077;85835;59089;32595;red firewall open-source;deposit Sausages;69093;39757
