{
    "name": "Sale",
    "fields": [
        {
            "fieldName": "subtotal",
            "fieldType": "BigDecimal"
        },
        {
            "fieldName": "productsQuantity",
            "fieldType": "Integer"
        },
        {
            "fieldName": "discount",
            "fieldType": "BigDecimal"
        },
        {
            "fieldName": "iva",
            "fieldType": "BigDecimal"
        },
        {
            "fieldName": "invoiceBusinessName",
            "fieldType": "String"
        },
        {
            "fieldName": "nitDocument",
            "fieldType": "String"
        },
        {
            "fieldName": "total",
            "fieldType": "BigDecimal"
        },
        {
            "fieldName": "totalPaid",
            "fieldType": "BigDecimal"
        }
    ],
    "relationships": [
        {
            "relationshipType": "one-to-many",
            "otherEntityName": "shoppingCartItem",
            "otherEntityRelationshipName": "sale",
            "relationshipName": "shoppingCartItem"
        },
        {
            "relationshipType": "many-to-one",
            "otherEntityName": "user",
            "otherEntityRelationshipName": "sale",
            "relationshipName": "user",
            "otherEntityField": "id"
        }
    ],
    "changelogDate": "20190904223422",
    "entityTableName": "sale",
    "dto": "no",
    "pagination": "pagination",
    "service": "serviceImpl",
    "jpaMetamodelFiltering": true,
    "fluentMethods": true,
    "clientRootFolder": "",
    "applications": "*"
}